lab2/simulation/qsim/ones_counter.msim.vcd
$comment
	File created using the following command:
		vcd file ones_counter.msim.vcd -direction
$end
$date
	Sun Sep 18 18:06:27 2022
$end
$version
	ModelSim Version 10.1d
$end
$timescale
	1ps
$end
$scope module ones_counter_vlg_vec_tst $end
$var reg 1 ! A $end
$var reg 1 " B $end
$var reg 1 # C $end
$var wire 1 $ S1 $end
$var wire 1 % S2 $end
$var wire 1 & sampler $end
$scope module i1 $end
$var wire 1 ' gnd $end
$var wire 1 ( vcc $end
$var wire 1 ) unknown $end
$var tri1 1 * devclrn $end
$var tri1 1 + devpor $end
$var tri1 1 , devoe $end
$var wire 1 - S1~output_o $end
$var wire 1 . S2~output_o $end
$var wire 1 / A~input_o $end
$var wire 1 0 C~input_o $end
$var wire 1 1 B~input_o $end
$var wire 1 2 u4|or_out~0_combout $end
$var wire 1 3 u9|or_out~0_combout $end
$upscope $end
$upscope $end
$enddefinitions $end
#0
$dumpvars
0!
1"
1#
1$
0%
x&
0'
1(
x)
1*
1+
1,
1-
0.
0/
10
11
12
03
$end
#5000
1!
1/
0&
13
1.
1%
#10000
0"
0#
0!
01
00
0/
1&
03
02
0.
0-
0%
0$
#15000
1!
1/
0&
13
1.
1%
#20000
1"
0!
11
0/
1&
#25000
1!
1/
0&
03
12
0.
1-
0%
1$
#30000
1#
0"
0!
10
01
0/
1&
13
02
1.
0-
1%
0$
#35000
1!
1/
0&
03
12
0.
1-
0%
1$
#40000
1"
0!
11
0/
1&
#45000
1!
1/
0&
13
1.
1%
#50000
0#
0"
0!
00
01
0/
1&
03
02
0.
0-
0%
0$
#55000
1!
1/
0&
13
1.
1%
#60000
1"
0!
11
0/
1&
#65000
1!
1/
0&
03
12
0.
1-
0%
1$
#70000
1#
0"
0!
10
01
0/
1&
13
02
1.
0-
1%
0$
#75000
1!
1/
0&
03
12
0.
1-
0%
1$
#80000
1"
0!
11
0/
1&
#85000
1!
1/
0&
13
1.
1%
#90000
0#
0"
0!
00
01
0/
1&
03
02
0.
0-
0%
0$
#95000
1!
1/
0&
13
1.
1%
#100000
1"
0!
11
0/
1&
#105000
1!
1/
0&
03
12
0.
1-
0%
1$
#110000
1#
0"
0!
10
01
0/
1&
13
02
1.
0-
1%
0$
#115000
1!
1/
0&
03
12
0.
1-
0%
1$
#120000
1"
0!
11
0/
1&
#125000
1!
1/
0&
13
1.
1%
#130000
0#
0"
0!
00
01
0/
1&
03
02
0.
0-
0%
0$
#135000
1!
1/
0&
13
1.
1%
#140000
1"
0!
11
0/
1&
#145000
1!
1/
0&
03
12
0.
1-
0%
1$
#150000
1#
0"
0!
10
01
0/
1&
13
02
1.
0-
1%
0$
#155000
1!
1/
0&
03
12
0.
1-
0%
1$
#160000
1"
0!
11
0/
1&
#165000
1!
1/
0&
13
1.
1%
#170000
0#
0"
0!
00
01
0/
1&
03
02
0.
0-
0%
0$
#175000
1!
1/
0&
13
1.
1%
#180000
1"
0!
11
0/
1&
#185000
1!
1/
0&
03
12
0.
1-
0%
1$
#190000
1#
0"
0!
10
01
0/
1&
13
02
1.
0-
1%
0$
#195000
1!
1/
0&
03
12
0.
1-
0%
1$
#200000
1"
0!
11
0/
1&
#205000
1!
1/
0&
13
1.
1%
#210000
0#
0"
0!
00
01
0/
1&
03
02
0.
0-
0%
0$
#215000
1!
1/
0&
13
1.
1%
#220000
1"
0!
11
0/
1&
#225000
1!
1/
0&
03
12
0.
1-
0%
1$
#230000
1#
0"
0!
10
01
0/
1&
13
02
1.
0-
1%
0$
#235000
1!
1/
0&
03
12
0.
1-
0%
1$
#240000
1"
0!
11
0/
1&
#245000
1!
1/
0&
13
1.
1%
#250000
0#
0"
0!
00
01
0/
1&
03
02
0.
0-
0%
0$
#255000
1!
1/
0&
13
1.
1%
#260000
1"
0!
11
0/
1&
#265000
1!
1/
0&
03
12
0.
1-
0%
1$
#270000
1#
0"
0!
10
01
0/
1&
13
02
1.
0-
1%
0$
#275000
1!
1/
0&
03
12
0.
1-
0%
1$
#280000
1"
0!
11
0/
1&
#285000
1!
1/
0&
13
1.
1%
#290000
0#
0"
0!
00
01
0/
1&
03
02
0.
0-
0%
0$
#295000
1!
1/
0&
13
1.
1%
#300000
1"
0!
11
0/
1&
#305000
1!
1/
0&
03
12
0.
1-
0%
1$
#310000
1#
0"
0!
10
01
0/
1&
13
02
1.
0-
1%
0$
#315000
1!
1/
0&
03
12
0.
1-
0%
1$
#320000
1"
0!
11
0/
1&
#325000
1!
1/
0&
13
1.
1%
#330000
0#
0"
0!
00
01
0/
1&
03
02
0.
0-
0%
0$
#335000
1!
1/
0&
13
1.
1%
#340000
1"
0!
11
0/
1&
#345000
1!
1/
0&
03
12
0.
1-
0%
1$
#350000
1#
0"
0!
10
01
0/
1&
13
02
1.
0-
1%
0$
#355000
1!
1/
0&
03
12
0.
1-
0%
1$
#360000
1"
0!
11
0/
1&
#365000
1!
1/
0&
13
1.
1%
#370000
0#
0"
0!
00
01
0/
1&
03
02
0.
0-
0%
0$
#375000
1!
1/
0&
13
1.
1%
#380000
1"
0!
11
0/
1&
#385000
1!
1/
0&
03
12
0.
1-
0%
1$
#390000
1#
0"
0!
10
01
0/
1&
13
02
1.
0-
1%
0$
#395000
1!
1/
0&
03
12
0.
1-
0%
1$
#400000
1"
0!
11
0/
1&
#405000
1!
1/
0&
13
1.
1%
#410000
0#
0"
0!
00
01
0/
1&
03
02
0.
0-
0%
0$
#415000
1!
1/
0&
13
1.
1%
#420000
1"
0!
11
0/
1&
#425000
1!
1/
0&
03
12
0.
1-
0%
1$
#430000
1#
0"
0!
10
01
0/
1&
13
02
1.
0-
1%
0$
#435000
1!
1/
0&
03
12
0.
1-
0%
1$
#440000
1"
0!
11
0/
1&
#445000
1!
1/
0&
13
1.
1%
#450000
0#
0"
0!
00
01
0/
1&
03
02
0.
0-
0%
0$
#455000
1!
1/
0&
13
1.
1%
#460000
1"
0!
11
0/
1&
#465000
1!
1/
0&
03
12
0.
1-
0%
1$
#470000
1#
0"
0!
10
01
0/
1&
13
02
1.
0-
1%
0$
#475000
1!
1/
0&
03
12
0.
1-
0%
1$
#480000
1"
0!
11
0/
1&
#485000
1!
1/
0&
13
1.
1%
#490000
0#
0"
0!
00
01
0/
1&
03
02
0.
0-
0%
0$
#495000
1!
1/
0&
13
1.
1%
#500000
1"
0!
11
0/
1&
#505000
1!
1/
0&
03
12
0.
1-
0%
1$
#510000
1#
0"
0!
10
01
0/
1&
13
02
1.
0-
1%
0$
#515000
1!
1/
0&
03
12
0.
1-
0%
1$
#520000
1"
0!
11
0/
1&
#525000
1!
1/
0&
13
1.
1%
#530000
0#
0"
0!
00
01
0/
1&
03
02
0.
0-
0%
0$
#535000
1!
1/
0&
13
1.
1%
#540000
1"
0!
11
0/
1&
#545000
1!
1/
0&
03
12
0.
1-
0%
1$
#550000
1#
0"
0!
10
01
0/
1&
13
02
1.
0-
1%
0$
#555000
1!
1/
0&
03
12
0.
1-
0%
1$
#560000
1"
0!
11
0/
1&
#565000
1!
1/
0&
13
1.
1%
#570000
0#
0"
0!
00
01
0/
1&
03
02
0.
0-
0%
0$
#575000
1!
1/
0&
13
1.
1%
#580000
1"
0!
11
0/
1&
#585000
1!
1/
0&
03
12
0.
1-
0%
1$
#590000
1#
0"
0!
10
01
0/
1&
13
02
1.
0-
1%
0$
#595000
1!
1/
0&
03
12
0.
1-
0%
1$
#600000
1"
0!
11
0/
1&
#605000
1!
1/
0&
13
1.
1%
#610000
0#
0"
0!
00
01
0/
1&
03
02
0.
0-
0%
0$
#615000
1!
1/
0&
13
1.
1%
#620000
1"
0!
11
0/
1&
#625000
1!
1/
0&
03
12
0.
1-
0%
1$
#630000
1#
0"
0!
10
01
0/
1&
13
02
1.
0-
1%
0$
#635000
1!
1/
0&
03
12
0.
1-
0%
1$
#640000
1"
0!
11
0/
1&
#645000
1!
1/
0&
13
1.
1%
#650000
0#
0"
0!
00
01
0/
1&
03
02
0.
0-
0%
0$
#655000
1!
1/
0&
13
1.
1%
#660000
1"
0!
11
0/
1&
#665000
1!
1/
0&
03
12
0.
1-
0%
1$
#670000
1#
0"
0!
10
01
0/
1&
13
02
1.
0-
1%
0$
#675000
1!
1/
0&
03
12
0.
1-
0%
1$
#680000
1"
0!
11
0/
1&
#685000
1!
1/
0&
13
1.
1%
#690000
0#
0"
0!
00
01
0/
1&
03
02
0.
0-
0%
0$
#695000
1!
1/
0&
13
1.
1%
#700000
1"
0!
11
0/
1&
#705000
1!
1/
0&
03
12
0.
1-
0%
1$
#710000
1#
0"
0!
10
01
0/
1&
13
02
1.
0-
1%
0$
#715000
1!
1/
0&
03
12
0.
1-
0%
1$
#720000
1"
0!
11
0/
1&
#725000
1!
1/
0&
13
1.
1%
#730000
0#
0"
0!
00
01
0/
1&
03
02
0.
0-
0%
0$
#735000
1!
1/
0&
13
1.
1%
#740000
1"
0!
11
0/
1&
#745000
1!
1/
0&
03
12
0.
1-
0%
1$
#750000
1#
0"
0!
10
01
0/
1&
13
02
1.
0-
1%
0$
#755000
1!
1/
0&
03
12
0.
1-
0%
1$
#760000
1"
0!
11
0/
1&
#765000
1!
1/
0&
13
1.
1%
#770000
0#
0"
0!
00
01
0/
1&
03
02
0.
0-
0%
0$
#775000
1!
1/
0&
13
1.
1%
#780000
1"
0!
11
0/
1&
#785000
1!
1/
0&
03
12
0.
1-
0%
1$
#790000
1#
0"
0!
10
01
0/
1&
13
02
1.
0-
1%
0$
#795000
1!
1/
0&
03
12
0.
1-
0%
1$
#800000
1"
0!
11
0/
1&
#805000
1!
1/
0&
13
1.
1%
#810000
0#
0"
0!
00
01
0/
1&
03
02
0.
0-
0%
0$
#815000
1!
1/
0&
13
1.
1%
#820000
1"
0!
11
0/
1&
#825000
1!
1/
0&
03
12
0.
1-
0%
1$
#830000
1#
0"
0!
10
01
0/
1&
13
02
1.
0-
1%
0$
#835000
1!
1/
0&
03
12
0.
1-
0%
1$
#840000
1"
0!
11
0/
1&
#845000
1!
1/
0&
13
1.
1%
#850000
0#
0"
0!
00
01
0/
1&
03
02
0.
0-
0%
0$
#855000
1!
1/
0&
13
1.
1%
#860000
1"
0!
11
0/
1&
#865000
1!
1/
0&
03
12
0.
1-
0%
1$
#870000
1#
0"
0!
10
01
0/
1&
13
02
1.
0-
1%
0$
#875000
1!
1/
0&
03
12
0.
1-
0%
1$
#880000
1"
0!
11
0/
1&
#885000
1!
1/
0&
13
1.
1%
#890000
0#
0"
0!
00
01
0/
1&
03
02
0.
0-
0%
0$
#895000
1!
1/
0&
13
1.
1%
#900000
1"
0!
11
0/
1&
#905000
1!
1/
0&
03
12
0.
1-
0%
1$
#910000
1#
0"
0!
10
01
0/
1&
13
02
1.
0-
1%
0$
#915000
1!
1/
0&
03
12
0.
1-
0%
1$
#920000
1"
0!
11
0/
1&
#925000
1!
1/
0&
13
1.
1%
#930000
0#
0"
0!
00
01
0/
1&
03
02
0.
0-
0%
0$
#935000
1!
1/
0&
13
1.
1%
#940000
1"
0!
11
0/
1&
#945000
1!
1/
0&
03
12
0.
1-
0%
1$
#950000
1#
0"
0!
10
01
0/
1&
13
02
1.
0-
1%
0$
#955000
1!
1/
0&
03
12
0.
1-
0%
1$
#960000
1"
0!
11
0/
1&
#965000
1!
1/
0&
13
1.
1%
#970000
0#
0"
0!
00
01
0/
1&
03
02
0.
0-
0%
0$
#975000
1!
1/
0&
13
1.
1%
#980000
1"
0!
11
0/
1&
#985000
1!
1/
0&
03
12
0.
1-
0%
1$
#990000
1#
0"
0!
10
01
0/
1&
13
02
1.
0-
1%
0$
#995000
1!
1/
0&
03
12
0.
1-
0%
1$
