lab1/q2_and_gate/simulation/qsim/and_gate.msim.vcd
$comment
	File created using the following command:
		vcd file and_gate.msim.vcd -direction
$end
$date
	Sat Sep 03 08:45:27 2022
$end
$version
	ModelSim Version 10.1d
$end
$timescale
	1ps
$end
$scope module and_gate_vlg_vec_tst $end
$var reg 1 ! a $end
$var reg 1 " b $end
$var wire 1 # s $end
$var wire 1 $ sampler $end
$scope module i1 $end
$var wire 1 % gnd $end
$var wire 1 & vcc $end
$var wire 1 ' unknown $end
$var tri1 1 ( devclrn $end
$var tri1 1 ) devpor $end
$var tri1 1 * devoe $end
$var wire 1 + s~output_o $end
$var wire 1 , a~input_o $end
$var wire 1 - b~input_o $end
$var wire 1 . s~0_combout $end
$upscope $end
$upscope $end
$enddefinitions $end
#0
$dumpvars
0!
0"
0#
x$
0%
1&
x'
1(
1)
1*
0+
0,
0-
0.
$end
#50000
1!
1,
0$
#100000
0!
0,
1$
#110000
1"
1-
0$
#150000
1!
1,
1$
1.
1+
1#
#200000
0!
0,
0$
0.
0+
0#
#220000
0"
0-
1$
#250000
1!
1,
0$
#300000
0!
0,
1$
#330000
1"
1-
0$
#350000
1!
1,
1$
1.
1+
1#
#400000
0!
0,
0$
0.
0+
0#
#440000
0"
0-
1$
#450000
1!
1,
0$
#500000
0!
0,
1$
#550000
1"
1!
1-
1,
0$
1.
1+
1#
#600000
0!
0,
1$
0.
0+
0#
#650000
1!
1,
0$
1.
1+
1#
#660000
0"
0-
1$
0.
0+
0#
#700000
0!
0,
0$
#750000
1!
1,
1$
#770000
1"
1-
0$
1.
1+
1#
#800000
0!
0,
1$
0.
0+
0#
#850000
1!
1,
0$
1.
1+
1#
#880000
0"
0-
1$
0.
0+
0#
#900000
0!
0,
0$
#950000
1!
1,
1$
#990000
1"
1-
0$
1.
1+
1#
