lab1/q3_properties/simulation/qsim/properties.msim.vcd
$comment
	File created using the following command:
		vcd file properties.msim.vcd -direction
$end
$date
	Sat Sep 03 09:26:05 2022
$end
$version
	ModelSim Version 10.1d
$end
$timescale
	1ps
$end
$scope module properties_vlg_vec_tst $end
$var reg 1 ! a $end
$var reg 1 " b $end
$var reg 1 # c $end
$var wire 1 $ a11 $end
$var wire 1 % a12 $end
$var wire 1 & a21 $end
$var wire 1 ' a22 $end
$var wire 1 ( c11 $end
$var wire 1 ) c12 $end
$var wire 1 * c21 $end
$var wire 1 + c22 $end
$var wire 1 , d11 $end
$var wire 1 - d12 $end
$var wire 1 . d21 $end
$var wire 1 / d22 $end
$var wire 1 0 i01 $end
$var wire 1 1 i02 $end
$var wire 1 2 i03 $end
$var wire 1 3 m11 $end
$var wire 1 4 m12 $end
$var wire 1 5 m21 $end
$var wire 1 6 m22 $end
$var wire 1 7 sampler $end
$scope module i1 $end
$var wire 1 8 gnd $end
$var wire 1 9 vcc $end
$var wire 1 : unknown $end
$var tri1 1 ; devclrn $end
$var tri1 1 < devpor $end
$var tri1 1 = devoe $end
$var wire 1 > b~input_o $end
$var wire 1 ? c~input_o $end
$var wire 1 @ i01~output_o $end
$var wire 1 A i02~output_o $end
$var wire 1 B i03~output_o $end
$var wire 1 C c11~output_o $end
$var wire 1 D c12~output_o $end
$var wire 1 E c21~output_o $end
$var wire 1 F c22~output_o $end
$var wire 1 G a11~output_o $end
$var wire 1 H a12~output_o $end
$var wire 1 I a21~output_o $end
$var wire 1 J a22~output_o $end
$var wire 1 K d11~output_o $end
$var wire 1 L d12~output_o $end
$var wire 1 M d21~output_o $end
$var wire 1 N d22~output_o $end
$var wire 1 O m11~output_o $end
$var wire 1 P m12~output_o $end
$var wire 1 Q m21~output_o $end
$var wire 1 R m22~output_o $end
$var wire 1 S a~input_o $end
$upscope $end
$upscope $end
$enddefinitions $end
#0
$dumpvars
0!
x"
x#
0$
0%
0&
0'
0(
0)
0*
0+
0,
0-
0.
0/
00
01
02
03
04
05
06
x7
08
19
x:
1;
1<
1=
x>
x?
0@
0A
0B
0C
0D
0E
0F
0G
0H
0I
0J
0K
0L
0M
0N
0O
0P
0Q
0R
0S
$end
#5000
1!
07
1S
1B
1A
1@
12
11
10
#10000
0!
17
0S
0B
0A
0@
02
01
00
#15000
1!
07
1S
1B
1A
1@
12
11
10
#20000
0!
17
0S
0B
0A
0@
02
01
00
#25000
1!
07
1S
1B
1A
1@
12
11
10
#30000
0!
17
0S
0B
0A
0@
02
01
00
#35000
1!
07
1S
1B
1A
1@
12
11
10
#40000
0!
17
0S
0B
0A
0@
02
01
00
#45000
1!
07
1S
1B
1A
1@
12
11
10
#50000
0!
17
0S
0B
0A
0@
02
01
00
#55000
1!
07
1S
1B
1A
1@
12
11
10
#60000
0!
17
0S
0B
0A
0@
02
01
00
#65000
1!
07
1S
1B
1A
1@
12
11
10
#70000
0!
17
0S
0B
0A
0@
02
01
00
#75000
1!
07
1S
1B
1A
1@
12
11
10
#80000
0!
17
0S
0B
0A
0@
02
01
00
#85000
1!
07
1S
1B
1A
1@
12
11
10
#90000
0!
17
0S
0B
0A
0@
02
01
00
#95000
1!
07
1S
1B
1A
1@
12
11
10
#100000
0!
17
0S
0B
0A
0@
02
01
00
#105000
1!
07
1S
1B
1A
1@
12
11
10
#110000
0!
17
0S
0B
0A
0@
02
01
00
#115000
1!
07
1S
1B
1A
1@
12
11
10
#120000
0!
17
0S
0B
0A
0@
02
01
00
#125000
1!
07
1S
1B
1A
1@
12
11
10
#130000
0!
17
0S
0B
0A
0@
02
01
00
#135000
1!
07
1S
1B
1A
1@
12
11
10
#140000
0!
17
0S
0B
0A
0@
02
01
00
#145000
1!
07
1S
1B
1A
1@
12
11
10
#150000
0!
17
0S
0B
0A
0@
02
01
00
#155000
1!
07
1S
1B
1A
1@
12
11
10
#160000
0!
17
0S
0B
0A
0@
02
01
00
#165000
1!
07
1S
1B
1A
1@
12
11
10
#170000
0!
17
0S
0B
0A
0@
02
01
00
#175000
1!
07
1S
1B
1A
1@
12
11
10
#180000
0!
17
0S
0B
0A
0@
02
01
00
#185000
1!
07
1S
1B
1A
1@
12
11
10
#190000
0!
17
0S
0B
0A
0@
02
01
00
#195000
1!
07
1S
1B
1A
1@
12
11
10
#200000
0!
17
0S
0B
0A
0@
02
01
00
#205000
1!
07
1S
1B
1A
1@
12
11
10
#210000
0!
17
0S
0B
0A
0@
02
01
00
#215000
1!
07
1S
1B
1A
1@
12
11
10
#220000
0!
17
0S
0B
0A
0@
02
01
00
#225000
1!
07
1S
1B
1A
1@
12
11
10
#230000
0!
17
0S
0B
0A
0@
02
01
00
#235000
1!
07
1S
1B
1A
1@
12
11
10
#240000
0!
17
0S
0B
0A
0@
02
01
00
#245000
1!
07
1S
1B
1A
1@
12
11
10
#250000
0!
17
0S
0B
0A
0@
02
01
00
#255000
1!
07
1S
1B
1A
1@
12
11
10
#260000
0!
17
0S
0B
0A
0@
02
01
00
#265000
1!
07
1S
1B
1A
1@
12
11
10
#270000
0!
17
0S
0B
0A
0@
02
01
00
#275000
1!
07
1S
1B
1A
1@
12
11
10
#280000
0!
17
0S
0B
0A
0@
02
01
00
#285000
1!
07
1S
1B
1A
1@
12
11
10
#290000
0!
17
0S
0B
0A
0@
02
01
00
#295000
1!
07
1S
1B
1A
1@
12
11
10
#300000
0!
17
0S
0B
0A
0@
02
01
00
#305000
1!
07
1S
1B
1A
1@
12
11
10
#310000
0!
17
0S
0B
0A
0@
02
01
00
#315000
1!
07
1S
1B
1A
1@
12
11
10
#320000
0!
17
0S
0B
0A
0@
02
01
00
#325000
1!
07
1S
1B
1A
1@
12
11
10
#330000
0!
17
0S
0B
0A
0@
02
01
00
#335000
1!
07
1S
1B
1A
1@
12
11
10
#340000
0!
17
0S
0B
0A
0@
02
01
00
#345000
1!
07
1S
1B
1A
1@
12
11
10
#350000
0!
17
0S
0B
0A
0@
02
01
00
#355000
1!
07
1S
1B
1A
1@
12
11
10
#360000
0!
17
0S
0B
0A
0@
02
01
00
#365000
1!
07
1S
1B
1A
1@
12
11
10
#370000
0!
17
0S
0B
0A
0@
02
01
00
#375000
1!
07
1S
1B
1A
1@
12
11
10
#380000
0!
17
0S
0B
0A
0@
02
01
00
#385000
1!
07
1S
1B
1A
1@
12
11
10
#390000
0!
17
0S
0B
0A
0@
02
01
00
#395000
1!
07
1S
1B
1A
1@
12
11
10
#400000
0!
17
0S
0B
0A
0@
02
01
00
#405000
1!
07
1S
1B
1A
1@
12
11
10
#410000
0!
17
0S
0B
0A
0@
02
01
00
#415000
1!
07
1S
1B
1A
1@
12
11
10
#420000
0!
17
0S
0B
0A
0@
02
01
00
#425000
1!
07
1S
1B
1A
1@
12
11
10
#430000
0!
17
0S
0B
0A
0@
02
01
00
#435000
1!
07
1S
1B
1A
1@
12
11
10
#440000
0!
17
0S
0B
0A
0@
02
01
00
#445000
1!
07
1S
1B
1A
1@
12
11
10
#450000
0!
17
0S
0B
0A
0@
02
01
00
#455000
1!
07
1S
1B
1A
1@
12
11
10
#460000
0!
17
0S
0B
0A
0@
02
01
00
#465000
1!
07
1S
1B
1A
1@
12
11
10
#470000
0!
17
0S
0B
0A
0@
02
01
00
#475000
1!
07
1S
1B
1A
1@
12
11
10
#480000
0!
17
0S
0B
0A
0@
02
01
00
#485000
1!
07
1S
1B
1A
1@
12
11
10
#490000
0!
17
0S
0B
0A
0@
02
01
00
#495000
1!
07
1S
1B
1A
1@
12
11
10
#500000
0!
17
0S
0B
0A
0@
02
01
00
#505000
1!
07
1S
1B
1A
1@
12
11
10
#510000
0!
17
0S
0B
0A
0@
02
01
00
#515000
1!
07
1S
1B
1A
1@
12
11
10
#520000
0!
17
0S
0B
0A
0@
02
01
00
#525000
1!
07
1S
1B
1A
1@
12
11
10
#530000
0!
17
0S
0B
0A
0@
02
01
00
#535000
1!
07
1S
1B
1A
1@
12
11
10
#540000
0!
17
0S
0B
0A
0@
02
01
00
#545000
1!
07
1S
1B
1A
1@
12
11
10
#550000
0!
17
0S
0B
0A
0@
02
01
00
#555000
1!
07
1S
1B
1A
1@
12
11
10
#560000
0!
17
0S
0B
0A
0@
02
01
00
#565000
1!
07
1S
1B
1A
1@
12
11
10
#570000
0!
17
0S
0B
0A
0@
02
01
00
#575000
1!
07
1S
1B
1A
1@
12
11
10
#580000
0!
17
0S
0B
0A
0@
02
01
00
#585000
1!
07
1S
1B
1A
1@
12
11
10
#590000
0!
17
0S
0B
0A
0@
02
01
00
#595000
1!
07
1S
1B
1A
1@
12
11
10
#600000
0!
17
0S
0B
0A
0@
02
01
00
#605000
1!
07
1S
1B
1A
1@
12
11
10
#610000
0!
17
0S
0B
0A
0@
02
01
00
#615000
1!
07
1S
1B
1A
1@
12
11
10
#620000
0!
17
0S
0B
0A
0@
02
01
00
#625000
1!
07
1S
1B
1A
1@
12
11
10
#630000
0!
17
0S
0B
0A
0@
02
01
00
#635000
1!
07
1S
1B
1A
1@
12
11
10
#640000
0!
17
0S
0B
0A
0@
02
01
00
#645000
1!
07
1S
1B
1A
1@
12
11
10
#650000
0!
17
0S
0B
0A
0@
02
01
00
#655000
1!
07
1S
1B
1A
1@
12
11
10
#660000
0!
17
0S
0B
0A
0@
02
01
00
#665000
1!
07
1S
1B
1A
1@
12
11
10
#670000
0!
17
0S
0B
0A
0@
02
01
00
#675000
1!
07
1S
1B
1A
1@
12
11
10
#680000
0!
17
0S
0B
0A
0@
02
01
00
#685000
1!
07
1S
1B
1A
1@
12
11
10
#690000
0!
17
0S
0B
0A
0@
02
01
00
#695000
1!
07
1S
1B
1A
1@
12
11
10
#700000
0!
17
0S
0B
0A
0@
02
01
00
#705000
1!
07
1S
1B
1A
1@
12
11
10
#710000
0!
17
0S
0B
0A
0@
02
01
00
#715000
1!
07
1S
1B
1A
1@
12
11
10
#720000
0!
17
0S
0B
0A
0@
02
01
00
#725000
1!
07
1S
1B
1A
1@
12
11
10
#730000
0!
17
0S
0B
0A
0@
02
01
00
#735000
1!
07
1S
1B
1A
1@
12
11
10
#740000
0!
17
0S
0B
0A
0@
02
01
00
#745000
1!
07
1S
1B
1A
1@
12
11
10
#750000
0!
17
0S
0B
0A
0@
02
01
00
#755000
1!
07
1S
1B
1A
1@
12
11
10
#760000
0!
17
0S
0B
0A
0@
02
01
00
#765000
1!
07
1S
1B
1A
1@
12
11
10
#770000
0!
17
0S
0B
0A
0@
02
01
00
#775000
1!
07
1S
1B
1A
1@
12
11
10
#780000
0!
17
0S
0B
0A
0@
02
01
00
#785000
1!
07
1S
1B
1A
1@
12
11
10
#790000
0!
17
0S
0B
0A
0@
02
01
00
#795000
1!
07
1S
1B
1A
1@
12
11
10
#800000
0!
17
0S
0B
0A
0@
02
01
00
#805000
1!
07
1S
1B
1A
1@
12
11
10
#810000
0!
17
0S
0B
0A
0@
02
01
00
#815000
1!
07
1S
1B
1A
1@
12
11
10
#820000
0!
17
0S
0B
0A
0@
02
01
00
#825000
1!
07
1S
1B
1A
1@
12
11
10
#830000
0!
17
0S
0B
0A
0@
02
01
00
#835000
1!
07
1S
1B
1A
1@
12
11
10
#840000
0!
17
0S
0B
0A
0@
02
01
00
#845000
1!
07
1S
1B
1A
1@
12
11
10
#850000
0!
17
0S
0B
0A
0@
02
01
00
#855000
1!
07
1S
1B
1A
1@
12
11
10
#860000
0!
17
0S
0B
0A
0@
02
01
00
#865000
1!
07
1S
1B
1A
1@
12
11
10
#870000
0!
17
0S
0B
0A
0@
02
01
00
#875000
1!
07
1S
1B
1A
1@
12
11
10
#880000
0!
17
0S
0B
0A
0@
02
01
00
#885000
1!
07
1S
1B
1A
1@
12
11
10
#890000
0!
17
0S
0B
0A
0@
02
01
00
#895000
1!
07
1S
1B
1A
1@
12
11
10
#900000
0!
17
0S
0B
0A
0@
02
01
00
#905000
1!
07
1S
1B
1A
1@
12
11
10
#910000
0!
17
0S
0B
0A
0@
02
01
00
#915000
1!
07
1S
1B
1A
1@
12
11
10
#920000
0!
17
0S
0B
0A
0@
02
01
00
#925000
1!
07
1S
1B
1A
1@
12
11
10
#930000
0!
17
0S
0B
0A
0@
02
01
00
#935000
1!
07
1S
1B
1A
1@
12
11
10
#940000
0!
17
0S
0B
0A
0@
02
01
00
#945000
1!
07
1S
1B
1A
1@
12
11
10
#950000
0!
17
0S
0B
0A
0@
02
01
00
#955000
1!
07
1S
1B
1A
1@
12
11
10
#960000
0!
17
0S
0B
0A
0@
02
01
00
#965000
1!
07
1S
1B
1A
1@
12
11
10
#970000
0!
17
0S
0B
0A
0@
02
01
00
#975000
1!
07
1S
1B
1A
1@
12
11
10
#980000
0!
17
0S
0B
0A
0@
02
01
00
#985000
1!
07
1S
1B
1A
1@
12
11
10
#990000
0!
17
0S
0B
0A
0@
02
01
00
#995000
1!
07
1S
1B
1A
1@
12
11
10
