lab1/q3_properties/simulation/qsim/properties.msim.vcd
$comment
	File created using the following command:
		vcd file properties.msim.vcd -direction
$end
$date
	Sun Sep 04 16:50:34 2022
$end
$version
	ModelSim Version 10.1d
$end
$timescale
	1ps
$end
$scope module properties_vlg_vec_tst $end
$var reg 1 ! a $end
$var reg 1 " b $end
$var reg 1 # c $end
$var wire 1 $ a11 $end
$var wire 1 % a12 $end
$var wire 1 & a21 $end
$var wire 1 ' a22 $end
$var wire 1 ( c11 $end
$var wire 1 ) c12 $end
$var wire 1 * c21 $end
$var wire 1 + c22 $end
$var wire 1 , d11 $end
$var wire 1 - d12 $end
$var wire 1 . d21 $end
$var wire 1 / d22 $end
$var wire 1 0 i01 $end
$var wire 1 1 i02 $end
$var wire 1 2 i03 $end
$var wire 1 3 m11 $end
$var wire 1 4 m12 $end
$var wire 1 5 m21 $end
$var wire 1 6 m22 $end
$var wire 1 7 sampler $end
$scope module i1 $end
$var wire 1 8 gnd $end
$var wire 1 9 vcc $end
$var wire 1 : unknown $end
$var tri1 1 ; devclrn $end
$var tri1 1 < devpor $end
$var tri1 1 = devoe $end
$var wire 1 > i01~output_o $end
$var wire 1 ? i02~output_o $end
$var wire 1 @ i03~output_o $end
$var wire 1 A c11~output_o $end
$var wire 1 B c12~output_o $end
$var wire 1 C c21~output_o $end
$var wire 1 D c22~output_o $end
$var wire 1 E a11~output_o $end
$var wire 1 F a12~output_o $end
$var wire 1 G a21~output_o $end
$var wire 1 H a22~output_o $end
$var wire 1 I d11~output_o $end
$var wire 1 J d12~output_o $end
$var wire 1 K d21~output_o $end
$var wire 1 L d22~output_o $end
$var wire 1 M m11~output_o $end
$var wire 1 N m12~output_o $end
$var wire 1 O m21~output_o $end
$var wire 1 P m22~output_o $end
$var wire 1 Q a~input_o $end
$var wire 1 R b~input_o $end
$var wire 1 S c11~0_combout $end
$var wire 1 T c21~0_combout $end
$var wire 1 U c~input_o $end
$var wire 1 V a12~0_combout $end
$var wire 1 W a22~0_combout $end
$var wire 1 X d11~0_combout $end
$var wire 1 Y d21~0_combout $end
$upscope $end
$upscope $end
$enddefinitions $end
#0
$dumpvars
0!
0"
0#
0$
0%
0&
0'
0(
0)
0*
0+
0,
0-
0.
0/
00
01
02
13
14
15
16
x7
08
19
x:
1;
1<
1=
0>
0?
0@
0A
0B
0C
0D
0E
0F
0G
0H
0I
0J
0K
0L
1M
1N
1O
1P
0Q
0R
1S
0T
0U
1V
0W
0X
0Y
$end
#10000
1!
07
1Q
0V
1@
1?
1>
12
11
10
1Y
0S
1E
1F
1L
1K
0P
0O
1A
1B
1$
1%
1/
1.
06
05
1(
1)
#20000
1"
0!
1R
17
0Q
0@
0?
0>
02
01
00
0Y
0L
0K
0/
0.
#30000
1!
07
1Q
1@
1?
1>
12
11
10
1Y
1X
1T
1L
1K
1J
1I
1D
1C
0M
0N
1/
1.
1-
1,
1+
1*
03
04
#40000
1#
0"
0!
1U
0R
17
0Q
0@
0?
0>
02
01
00
0Y
0X
0T
1S
0L
0K
0J
0I
0D
0C
1P
1O
1M
1N
0A
0B
0/
0.
0-
0,
0+
0*
16
15
13
14
0(
0)
#50000
1!
07
1Q
1@
1?
1>
12
11
10
1Y
1X
0S
1L
1K
1J
1I
0P
0O
1A
1B
1/
1.
1-
1,
06
05
1(
1)
#60000
1"
0!
1R
17
0Q
0@
0?
0>
02
01
00
0X
0J
0I
0-
0,
#70000
1!
07
1Q
1@
1?
1>
12
11
10
1X
1W
1T
1J
1I
1H
1G
1D
1C
0M
0N
1-
1,
1'
1&
1+
1*
03
04
#80000
0#
0"
0!
0U
0R
17
0Q
1V
0@
0?
0>
02
01
00
0Y
0X
0W
0T
1S
0E
0F
0L
0K
0J
0I
0H
0G
0D
0C
1P
1O
1M
1N
0A
0B
0$
0%
0/
0.
0-
0,
0'
0&
0+
0*
16
15
13
14
0(
0)
#90000
1!
07
1Q
0V
1@
1?
1>
12
11
10
1Y
0S
1E
1F
1L
1K
0P
0O
1A
1B
1$
1%
1/
1.
06
05
1(
1)
#100000
1"
0!
1R
17
0Q
0@
0?
0>
02
01
00
0Y
0L
0K
0/
0.
#110000
1!
07
1Q
1@
1?
1>
12
11
10
1Y
1X
1T
1L
1K
1J
1I
1D
1C
0M
0N
1/
1.
1-
1,
1+
1*
03
04
#120000
1#
0"
0!
1U
0R
17
0Q
0@
0?
0>
02
01
00
0Y
0X
0T
1S
0L
0K
0J
0I
0D
0C
1P
1O
1M
1N
0A
0B
0/
0.
0-
0,
0+
0*
16
15
13
14
0(
0)
#130000
1!
07
1Q
1@
1?
1>
12
11
10
1Y
1X
0S
1L
1K
1J
1I
0P
0O
1A
1B
1/
1.
1-
1,
06
05
1(
1)
#140000
1"
0!
1R
17
0Q
0@
0?
0>
02
01
00
0X
0J
0I
0-
0,
#150000
1!
07
1Q
1@
1?
1>
12
11
10
1X
1W
1T
1J
1I
1H
1G
1D
1C
0M
0N
1-
1,
1'
1&
1+
1*
03
04
#160000
0#
0"
0!
0U
0R
17
0Q
1V
0@
0?
0>
02
01
00
0Y
0X
0W
0T
1S
0E
0F
0L
0K
0J
0I
0H
0G
0D
0C
1P
1O
1M
1N
0A
0B
0$
0%
0/
0.
0-
0,
0'
0&
0+
0*
16
15
13
14
0(
0)
#170000
1!
07
1Q
0V
1@
1?
1>
12
11
10
1Y
0S
1E
1F
1L
1K
0P
0O
1A
1B
1$
1%
1/
1.
06
05
1(
1)
#180000
1"
0!
1R
17
0Q
0@
0?
0>
02
01
00
0Y
0L
0K
0/
0.
#190000
1!
07
1Q
1@
1?
1>
12
11
10
1Y
1X
1T
1L
1K
1J
1I
1D
1C
0M
0N
1/
1.
1-
1,
1+
1*
03
04
#200000
1#
0"
0!
1U
0R
17
0Q
0@
0?
0>
02
01
00
0Y
0X
0T
1S
0L
0K
0J
0I
0D
0C
1P
1O
1M
1N
0A
0B
0/
0.
0-
0,
0+
0*
16
15
13
14
0(
0)
#210000
1!
07
1Q
1@
1?
1>
12
11
10
1Y
1X
0S
1L
1K
1J
1I
0P
0O
1A
1B
1/
1.
1-
1,
06
05
1(
1)
#220000
1"
0!
1R
17
0Q
0@
0?
0>
02
01
00
0X
0J
0I
0-
0,
#230000
1!
07
1Q
1@
1?
1>
12
11
10
1X
1W
1T
1J
1I
1H
1G
1D
1C
0M
0N
1-
1,
1'
1&
1+
1*
03
04
#240000
0#
0"
0!
0U
0R
17
0Q
1V
0@
0?
0>
02
01
00
0Y
0X
0W
0T
1S
0E
0F
0L
0K
0J
0I
0H
0G
0D
0C
1P
1O
1M
1N
0A
0B
0$
0%
0/
0.
0-
0,
0'
0&
0+
0*
16
15
13
14
0(
0)
#250000
1!
07
1Q
0V
1@
1?
1>
12
11
10
1Y
0S
1E
1F
1L
1K
0P
0O
1A
1B
1$
1%
1/
1.
06
05
1(
1)
#260000
1"
0!
1R
17
0Q
0@
0?
0>
02
01
00
0Y
0L
0K
0/
0.
#270000
1!
07
1Q
1@
1?
1>
12
11
10
1Y
1X
1T
1L
1K
1J
1I
1D
1C
0M
0N
1/
1.
1-
1,
1+
1*
03
04
#280000
1#
0"
0!
1U
0R
17
0Q
0@
0?
0>
02
01
00
0Y
0X
0T
1S
0L
0K
0J
0I
0D
0C
1P
1O
1M
1N
0A
0B
0/
0.
0-
0,
0+
0*
16
15
13
14
0(
0)
#290000
1!
07
1Q
1@
1?
1>
12
11
10
1Y
1X
0S
1L
1K
1J
1I
0P
0O
1A
1B
1/
1.
1-
1,
06
05
1(
1)
#300000
1"
0!
1R
17
0Q
0@
0?
0>
02
01
00
0X
0J
0I
0-
0,
#310000
1!
07
1Q
1@
1?
1>
12
11
10
1X
1W
1T
1J
1I
1H
1G
1D
1C
0M
0N
1-
1,
1'
1&
1+
1*
03
04
#320000
0#
0"
0!
0U
0R
17
0Q
1V
0@
0?
0>
02
01
00
0Y
0X
0W
0T
1S
0E
0F
0L
0K
0J
0I
0H
0G
0D
0C
1P
1O
1M
1N
0A
0B
0$
0%
0/
0.
0-
0,
0'
0&
0+
0*
16
15
13
14
0(
0)
#330000
1!
07
1Q
0V
1@
1?
1>
12
11
10
1Y
0S
1E
1F
1L
1K
0P
0O
1A
1B
1$
1%
1/
1.
06
05
1(
1)
#340000
1"
0!
1R
17
0Q
0@
0?
0>
02
01
00
0Y
0L
0K
0/
0.
#350000
1!
07
1Q
1@
1?
1>
12
11
10
1Y
1X
1T
1L
1K
1J
1I
1D
1C
0M
0N
1/
1.
1-
1,
1+
1*
03
04
#360000
1#
0"
0!
1U
0R
17
0Q
0@
0?
0>
02
01
00
0Y
0X
0T
1S
0L
0K
0J
0I
0D
0C
1P
1O
1M
1N
0A
0B
0/
0.
0-
0,
0+
0*
16
15
13
14
0(
0)
#370000
1!
07
1Q
1@
1?
1>
12
11
10
1Y
1X
0S
1L
1K
1J
1I
0P
0O
1A
1B
1/
1.
1-
1,
06
05
1(
1)
#380000
1"
0!
1R
17
0Q
0@
0?
0>
02
01
00
0X
0J
0I
0-
0,
#390000
1!
07
1Q
1@
1?
1>
12
11
10
1X
1W
1T
1J
1I
1H
1G
1D
1C
0M
0N
1-
1,
1'
1&
1+
1*
03
04
#400000
0#
0"
0!
0U
0R
17
0Q
1V
0@
0?
0>
02
01
00
0Y
0X
0W
0T
1S
0E
0F
0L
0K
0J
0I
0H
0G
0D
0C
1P
1O
1M
1N
0A
0B
0$
0%
0/
0.
0-
0,
0'
0&
0+
0*
16
15
13
14
0(
0)
#410000
1!
07
1Q
0V
1@
1?
1>
12
11
10
1Y
0S
1E
1F
1L
1K
0P
0O
1A
1B
1$
1%
1/
1.
06
05
1(
1)
#420000
1"
0!
1R
17
0Q
0@
0?
0>
02
01
00
0Y
0L
0K
0/
0.
#430000
1!
07
1Q
1@
1?
1>
12
11
10
1Y
1X
1T
1L
1K
1J
1I
1D
1C
0M
0N
1/
1.
1-
1,
1+
1*
03
04
#440000
1#
0"
0!
1U
0R
17
0Q
0@
0?
0>
02
01
00
0Y
0X
0T
1S
0L
0K
0J
0I
0D
0C
1P
1O
1M
1N
0A
0B
0/
0.
0-
0,
0+
0*
16
15
13
14
0(
0)
#450000
1!
07
1Q
1@
1?
1>
12
11
10
1Y
1X
0S
1L
1K
1J
1I
0P
0O
1A
1B
1/
1.
1-
1,
06
05
1(
1)
#460000
1"
0!
1R
17
0Q
0@
0?
0>
02
01
00
0X
0J
0I
0-
0,
#470000
1!
07
1Q
1@
1?
1>
12
11
10
1X
1W
1T
1J
1I
1H
1G
1D
1C
0M
0N
1-
1,
1'
1&
1+
1*
03
04
#480000
0#
0"
0!
0U
0R
17
0Q
1V
0@
0?
0>
02
01
00
0Y
0X
0W
0T
1S
0E
0F
0L
0K
0J
0I
0H
0G
0D
0C
1P
1O
1M
1N
0A
0B
0$
0%
0/
0.
0-
0,
0'
0&
0+
0*
16
15
13
14
0(
0)
#490000
1!
07
1Q
0V
1@
1?
1>
12
11
10
1Y
0S
1E
1F
1L
1K
0P
0O
1A
1B
1$
1%
1/
1.
06
05
1(
1)
#500000
1"
0!
1R
17
0Q
0@
0?
0>
02
01
00
0Y
0L
0K
0/
0.
#510000
1!
07
1Q
1@
1?
1>
12
11
10
1Y
1X
1T
1L
1K
1J
1I
1D
1C
0M
0N
1/
1.
1-
1,
1+
1*
03
04
#520000
1#
0"
0!
1U
0R
17
0Q
0@
0?
0>
02
01
00
0Y
0X
0T
1S
0L
0K
0J
0I
0D
0C
1P
1O
1M
1N
0A
0B
0/
0.
0-
0,
0+
0*
16
15
13
14
0(
0)
#530000
1!
07
1Q
1@
1?
1>
12
11
10
1Y
1X
0S
1L
1K
1J
1I
0P
0O
1A
1B
1/
1.
1-
1,
06
05
1(
1)
#540000
1"
0!
1R
17
0Q
0@
0?
0>
02
01
00
0X
0J
0I
0-
0,
#550000
1!
07
1Q
1@
1?
1>
12
11
10
1X
1W
1T
1J
1I
1H
1G
1D
1C
0M
0N
1-
1,
1'
1&
1+
1*
03
04
#560000
0#
0"
0!
0U
0R
17
0Q
1V
0@
0?
0>
02
01
00
0Y
0X
0W
0T
1S
0E
0F
0L
0K
0J
0I
0H
0G
0D
0C
1P
1O
1M
1N
0A
0B
0$
0%
0/
0.
0-
0,
0'
0&
0+
0*
16
15
13
14
0(
0)
#570000
1!
07
1Q
0V
1@
1?
1>
12
11
10
1Y
0S
1E
1F
1L
1K
0P
0O
1A
1B
1$
1%
1/
1.
06
05
1(
1)
#580000
1"
0!
1R
17
0Q
0@
0?
0>
02
01
00
0Y
0L
0K
0/
0.
#590000
1!
07
1Q
1@
1?
1>
12
11
10
1Y
1X
1T
1L
1K
1J
1I
1D
1C
0M
0N
1/
1.
1-
1,
1+
1*
03
04
#600000
1#
0"
0!
1U
0R
17
0Q
0@
0?
0>
02
01
00
0Y
0X
0T
1S
0L
0K
0J
0I
0D
0C
1P
1O
1M
1N
0A
0B
0/
0.
0-
0,
0+
0*
16
15
13
14
0(
0)
#610000
1!
07
1Q
1@
1?
1>
12
11
10
1Y
1X
0S
1L
1K
1J
1I
0P
0O
1A
1B
1/
1.
1-
1,
06
05
1(
1)
#620000
1"
0!
1R
17
0Q
0@
0?
0>
02
01
00
0X
0J
0I
0-
0,
#630000
1!
07
1Q
1@
1?
1>
12
11
10
1X
1W
1T
1J
1I
1H
1G
1D
1C
0M
0N
1-
1,
1'
1&
1+
1*
03
04
#640000
0#
0"
0!
0U
0R
17
0Q
1V
0@
0?
0>
02
01
00
0Y
0X
0W
0T
1S
0E
0F
0L
0K
0J
0I
0H
0G
0D
0C
1P
1O
1M
1N
0A
0B
0$
0%
0/
0.
0-
0,
0'
0&
0+
0*
16
15
13
14
0(
0)
#650000
1!
07
1Q
0V
1@
1?
1>
12
11
10
1Y
0S
1E
1F
1L
1K
0P
0O
1A
1B
1$
1%
1/
1.
06
05
1(
1)
#660000
1"
0!
1R
17
0Q
0@
0?
0>
02
01
00
0Y
0L
0K
0/
0.
#670000
1!
07
1Q
1@
1?
1>
12
11
10
1Y
1X
1T
1L
1K
1J
1I
1D
1C
0M
0N
1/
1.
1-
1,
1+
1*
03
04
#680000
1#
0"
0!
1U
0R
17
0Q
0@
0?
0>
02
01
00
0Y
0X
0T
1S
0L
0K
0J
0I
0D
0C
1P
1O
1M
1N
0A
0B
0/
0.
0-
0,
0+
0*
16
15
13
14
0(
0)
#690000
1!
07
1Q
1@
1?
1>
12
11
10
1Y
1X
0S
1L
1K
1J
1I
0P
0O
1A
1B
1/
1.
1-
1,
06
05
1(
1)
#700000
1"
0!
1R
17
0Q
0@
0?
0>
02
01
00
0X
0J
0I
0-
0,
#710000
1!
07
1Q
1@
1?
1>
12
11
10
1X
1W
1T
1J
1I
1H
1G
1D
1C
0M
0N
1-
1,
1'
1&
1+
1*
03
04
#720000
0#
0"
0!
0U
0R
17
0Q
1V
0@
0?
0>
02
01
00
0Y
0X
0W
0T
1S
0E
0F
0L
0K
0J
0I
0H
0G
0D
0C
1P
1O
1M
1N
0A
0B
0$
0%
0/
0.
0-
0,
0'
0&
0+
0*
16
15
13
14
0(
0)
#730000
1!
07
1Q
0V
1@
1?
1>
12
11
10
1Y
0S
1E
1F
1L
1K
0P
0O
1A
1B
1$
1%
1/
1.
06
05
1(
1)
#740000
1"
0!
1R
17
0Q
0@
0?
0>
02
01
00
0Y
0L
0K
0/
0.
#750000
1!
07
1Q
1@
1?
1>
12
11
10
1Y
1X
1T
1L
1K
1J
1I
1D
1C
0M
0N
1/
1.
1-
1,
1+
1*
03
04
#760000
1#
0"
0!
1U
0R
17
0Q
0@
0?
0>
02
01
00
0Y
0X
0T
1S
0L
0K
0J
0I
0D
0C
1P
1O
1M
1N
0A
0B
0/
0.
0-
0,
0+
0*
16
15
13
14
0(
0)
#770000
1!
07
1Q
1@
1?
1>
12
11
10
1Y
1X
0S
1L
1K
1J
1I
0P
0O
1A
1B
1/
1.
1-
1,
06
05
1(
1)
#780000
1"
0!
1R
17
0Q
0@
0?
0>
02
01
00
0X
0J
0I
0-
0,
#790000
1!
07
1Q
1@
1?
1>
12
11
10
1X
1W
1T
1J
1I
1H
1G
1D
1C
0M
0N
1-
1,
1'
1&
1+
1*
03
04
#800000
0#
0"
0!
0U
0R
17
0Q
1V
0@
0?
0>
02
01
00
0Y
0X
0W
0T
1S
0E
0F
0L
0K
0J
0I
0H
0G
0D
0C
1P
1O
1M
1N
0A
0B
0$
0%
0/
0.
0-
0,
0'
0&
0+
0*
16
15
13
14
0(
0)
#810000
1!
07
1Q
0V
1@
1?
1>
12
11
10
1Y
0S
1E
1F
1L
1K
0P
0O
1A
1B
1$
1%
1/
1.
06
05
1(
1)
#820000
1"
0!
1R
17
0Q
0@
0?
0>
02
01
00
0Y
0L
0K
0/
0.
#830000
1!
07
1Q
1@
1?
1>
12
11
10
1Y
1X
1T
1L
1K
1J
1I
1D
1C
0M
0N
1/
1.
1-
1,
1+
1*
03
04
#840000
1#
0"
0!
1U
0R
17
0Q
0@
0?
0>
02
01
00
0Y
0X
0T
1S
0L
0K
0J
0I
0D
0C
1P
1O
1M
1N
0A
0B
0/
0.
0-
0,
0+
0*
16
15
13
14
0(
0)
#850000
1!
07
1Q
1@
1?
1>
12
11
10
1Y
1X
0S
1L
1K
1J
1I
0P
0O
1A
1B
1/
1.
1-
1,
06
05
1(
1)
#860000
1"
0!
1R
17
0Q
0@
0?
0>
02
01
00
0X
0J
0I
0-
0,
#870000
1!
07
1Q
1@
1?
1>
12
11
10
1X
1W
1T
1J
1I
1H
1G
1D
1C
0M
0N
1-
1,
1'
1&
1+
1*
03
04
#880000
0#
0"
0!
0U
0R
17
0Q
1V
0@
0?
0>
02
01
00
0Y
0X
0W
0T
1S
0E
0F
0L
0K
0J
0I
0H
0G
0D
0C
1P
1O
1M
1N
0A
0B
0$
0%
0/
0.
0-
0,
0'
0&
0+
0*
16
15
13
14
0(
0)
#890000
1!
07
1Q
0V
1@
1?
1>
12
11
10
1Y
0S
1E
1F
1L
1K
0P
0O
1A
1B
1$
1%
1/
1.
06
05
1(
1)
#900000
1"
0!
1R
17
0Q
0@
0?
0>
02
01
00
0Y
0L
0K
0/
0.
#910000
1!
07
1Q
1@
1?
1>
12
11
10
1Y
1X
1T
1L
1K
1J
1I
1D
1C
0M
0N
1/
1.
1-
1,
1+
1*
03
04
#920000
1#
0"
0!
1U
0R
17
0Q
0@
0?
0>
02
01
00
0Y
0X
0T
1S
0L
0K
0J
0I
0D
0C
1P
1O
1M
1N
0A
0B
0/
0.
0-
0,
0+
0*
16
15
13
14
0(
0)
#930000
1!
07
1Q
1@
1?
1>
12
11
10
1Y
1X
0S
1L
1K
1J
1I
0P
0O
1A
1B
1/
1.
1-
1,
06
05
1(
1)
#940000
1"
0!
1R
17
0Q
0@
0?
0>
02
01
00
0X
0J
0I
0-
0,
#950000
1!
07
1Q
1@
1?
1>
12
11
10
1X
1W
1T
1J
1I
1H
1G
1D
1C
0M
0N
1-
1,
1'
1&
1+
1*
03
04
#960000
0#
0"
0!
0U
0R
17
0Q
1V
0@
0?
0>
02
01
00
0Y
0X
0W
0T
1S
0E
0F
0L
0K
0J
0I
0H
0G
0D
0C
1P
1O
1M
1N
0A
0B
0$
0%
0/
0.
0-
0,
0'
0&
0+
0*
16
15
13
14
0(
0)
#970000
1!
07
1Q
0V
1@
1?
1>
12
11
10
1Y
0S
1E
1F
1L
1K
0P
0O
1A
1B
1$
1%
1/
1.
06
05
1(
1)
#980000
1"
0!
1R
17
0Q
0@
0?
0>
02
01
00
0Y
0L
0K
0/
0.
#990000
1!
07
1Q
1@
1?
1>
12
11
10
1Y
1X
1T
1L
1K
1J
1I
1D
1C
0M
0N
1/
1.
1-
1,
1+
1*
03
04
