lab3/q1_MUX2X1LCKT/simulation/qsim/mux2x1.msim.vcd
$comment
	File created using the following command:
		vcd file mux2x1.msim.vcd -direction
$end
$date
	Mon Oct 03 10:23:51 2022
$end
$version
	ModelSim Version 10.1d
$end
$timescale
	1ps
$end
$scope module mux2x1_vlg_vec_tst $end
$var reg 1 ! I0 $end
$var reg 1 " I1 $end
$var reg 1 # s $end
$var wire 1 $ d $end
$var wire 1 % sampler $end
$scope module i1 $end
$var wire 1 & gnd $end
$var wire 1 ' vcc $end
$var wire 1 ( unknown $end
$var tri1 1 ) devclrn $end
$var tri1 1 * devpor $end
$var tri1 1 + devoe $end
$var wire 1 , d~output_o $end
$var wire 1 - I1~input_o $end
$var wire 1 . I0~input_o $end
$var wire 1 / s~input_o $end
$var wire 1 0 d~0_combout $end
$upscope $end
$upscope $end
$enddefinitions $end
#0
$dumpvars
0!
0"
0#
0$
x%
0&
1'
x(
1)
1*
1+
0,
0-
0.
0/
00
$end
#5000
1!
1.
0%
10
1,
1$
#10000
1"
0!
1-
0.
1%
00
0,
0$
#15000
1!
1.
0%
10
1,
1$
#20000
1#
0"
0!
1/
0-
0.
1%
00
0,
0$
#25000
1!
1.
0%
#30000
1"
0!
1-
0.
1%
10
1,
1$
#35000
1!
1.
0%
#40000
0#
0"
0!
0/
0-
0.
1%
00
0,
0$
#45000
1!
1.
0%
10
1,
1$
#50000
1"
0!
1-
0.
1%
00
0,
0$
#55000
1!
1.
0%
10
1,
1$
#60000
1#
0"
0!
1/
0-
0.
1%
00
0,
0$
#65000
1!
1.
0%
#70000
1"
0!
1-
0.
1%
10
1,
1$
#75000
1!
1.
0%
#80000
0#
0"
0!
0/
0-
0.
1%
00
0,
0$
#85000
1!
1.
0%
10
1,
1$
#90000
1"
0!
1-
0.
1%
00
0,
0$
#95000
1!
1.
0%
10
1,
1$
#100000
1#
0"
0!
1/
0-
0.
1%
00
0,
0$
#105000
1!
1.
0%
#110000
1"
0!
1-
0.
1%
10
1,
1$
#115000
1!
1.
0%
#120000
0#
0"
0!
0/
0-
0.
1%
00
0,
0$
#125000
1!
1.
0%
10
1,
1$
#130000
1"
0!
1-
0.
1%
00
0,
0$
#135000
1!
1.
0%
10
1,
1$
#140000
1#
0"
0!
1/
0-
0.
1%
00
0,
0$
#145000
1!
1.
0%
#150000
1"
0!
1-
0.
1%
10
1,
1$
#155000
1!
1.
0%
#160000
0#
0"
0!
0/
0-
0.
1%
00
0,
0$
#165000
1!
1.
0%
10
1,
1$
#170000
1"
0!
1-
0.
1%
00
0,
0$
#175000
1!
1.
0%
10
1,
1$
#180000
1#
0"
0!
1/
0-
0.
1%
00
0,
0$
#185000
1!
1.
0%
#190000
1"
0!
1-
0.
1%
10
1,
1$
#195000
1!
1.
0%
#200000
0#
0"
0!
0/
0-
0.
1%
00
0,
0$
#205000
1!
1.
0%
10
1,
1$
#210000
1"
0!
1-
0.
1%
00
0,
0$
#215000
1!
1.
0%
10
1,
1$
#220000
1#
0"
0!
1/
0-
0.
1%
00
0,
0$
#225000
1!
1.
0%
#230000
1"
0!
1-
0.
1%
10
1,
1$
#235000
1!
1.
0%
#240000
0#
0"
0!
0/
0-
0.
1%
00
0,
0$
#245000
1!
1.
0%
10
1,
1$
#250000
1"
0!
1-
0.
1%
00
0,
0$
#255000
1!
1.
0%
10
1,
1$
#260000
1#
0"
0!
1/
0-
0.
1%
00
0,
0$
#265000
1!
1.
0%
#270000
1"
0!
1-
0.
1%
10
1,
1$
#275000
1!
1.
0%
#280000
0#
0"
0!
0/
0-
0.
1%
00
0,
0$
#285000
1!
1.
0%
10
1,
1$
#290000
1"
0!
1-
0.
1%
00
0,
0$
#295000
1!
1.
0%
10
1,
1$
#300000
1#
0"
0!
1/
0-
0.
1%
00
0,
0$
#305000
1!
1.
0%
#310000
1"
0!
1-
0.
1%
10
1,
1$
#315000
1!
1.
0%
#320000
0#
0"
0!
0/
0-
0.
1%
00
0,
0$
#325000
1!
1.
0%
10
1,
1$
#330000
1"
0!
1-
0.
1%
00
0,
0$
#335000
1!
1.
0%
10
1,
1$
#340000
1#
0"
0!
1/
0-
0.
1%
00
0,
0$
#345000
1!
1.
0%
#350000
1"
0!
1-
0.
1%
10
1,
1$
#355000
1!
1.
0%
#360000
0#
0"
0!
0/
0-
0.
1%
00
0,
0$
#365000
1!
1.
0%
10
1,
1$
#370000
1"
0!
1-
0.
1%
00
0,
0$
#375000
1!
1.
0%
10
1,
1$
#380000
1#
0"
0!
1/
0-
0.
1%
00
0,
0$
#385000
1!
1.
0%
#390000
1"
0!
1-
0.
1%
10
1,
1$
#395000
1!
1.
0%
#400000
0#
0"
0!
0/
0-
0.
1%
00
0,
0$
#405000
1!
1.
0%
10
1,
1$
#410000
1"
0!
1-
0.
1%
00
0,
0$
#415000
1!
1.
0%
10
1,
1$
#420000
1#
0"
0!
1/
0-
0.
1%
00
0,
0$
#425000
1!
1.
0%
#430000
1"
0!
1-
0.
1%
10
1,
1$
#435000
1!
1.
0%
#440000
0#
0"
0!
0/
0-
0.
1%
00
0,
0$
#445000
1!
1.
0%
10
1,
1$
#450000
1"
0!
1-
0.
1%
00
0,
0$
#455000
1!
1.
0%
10
1,
1$
#460000
1#
0"
0!
1/
0-
0.
1%
00
0,
0$
#465000
1!
1.
0%
#470000
1"
0!
1-
0.
1%
10
1,
1$
#475000
1!
1.
0%
#480000
0#
0"
0!
0/
0-
0.
1%
00
0,
0$
#485000
1!
1.
0%
10
1,
1$
#490000
1"
0!
1-
0.
1%
00
0,
0$
#495000
1!
1.
0%
10
1,
1$
#500000
1#
0"
0!
1/
0-
0.
1%
00
0,
0$
#505000
1!
1.
0%
#510000
1"
0!
1-
0.
1%
10
1,
1$
#515000
1!
1.
0%
#520000
0#
0"
0!
0/
0-
0.
1%
00
0,
0$
#525000
1!
1.
0%
10
1,
1$
#530000
1"
0!
1-
0.
1%
00
0,
0$
#535000
1!
1.
0%
10
1,
1$
#540000
1#
0"
0!
1/
0-
0.
1%
00
0,
0$
#545000
1!
1.
0%
#550000
1"
0!
1-
0.
1%
10
1,
1$
#555000
1!
1.
0%
#560000
0#
0"
0!
0/
0-
0.
1%
00
0,
0$
#565000
1!
1.
0%
10
1,
1$
#570000
1"
0!
1-
0.
1%
00
0,
0$
#575000
1!
1.
0%
10
1,
1$
#580000
1#
0"
0!
1/
0-
0.
1%
00
0,
0$
#585000
1!
1.
0%
#590000
1"
0!
1-
0.
1%
10
1,
1$
#595000
1!
1.
0%
#600000
0#
0"
0!
0/
0-
0.
1%
00
0,
0$
#605000
1!
1.
0%
10
1,
1$
#610000
1"
0!
1-
0.
1%
00
0,
0$
#615000
1!
1.
0%
10
1,
1$
#620000
1#
0"
0!
1/
0-
0.
1%
00
0,
0$
#625000
1!
1.
0%
#630000
1"
0!
1-
0.
1%
10
1,
1$
#635000
1!
1.
0%
#640000
0#
0"
0!
0/
0-
0.
1%
00
0,
0$
#645000
1!
1.
0%
10
1,
1$
#650000
1"
0!
1-
0.
1%
00
0,
0$
#655000
1!
1.
0%
10
1,
1$
#660000
1#
0"
0!
1/
0-
0.
1%
00
0,
0$
#665000
1!
1.
0%
#670000
1"
0!
1-
0.
1%
10
1,
1$
#675000
1!
1.
0%
#680000
0#
0"
0!
0/
0-
0.
1%
00
0,
0$
#685000
1!
1.
0%
10
1,
1$
#690000
1"
0!
1-
0.
1%
00
0,
0$
#695000
1!
1.
0%
10
1,
1$
#700000
1#
0"
0!
1/
0-
0.
1%
00
0,
0$
#705000
1!
1.
0%
#710000
1"
0!
1-
0.
1%
10
1,
1$
#715000
1!
1.
0%
#720000
0#
0"
0!
0/
0-
0.
1%
00
0,
0$
#725000
1!
1.
0%
10
1,
1$
#730000
1"
0!
1-
0.
1%
00
0,
0$
#735000
1!
1.
0%
10
1,
1$
#740000
1#
0"
0!
1/
0-
0.
1%
00
0,
0$
#745000
1!
1.
0%
#750000
1"
0!
1-
0.
1%
10
1,
1$
#755000
1!
1.
0%
#760000
0#
0"
0!
0/
0-
0.
1%
00
0,
0$
#765000
1!
1.
0%
10
1,
1$
#770000
1"
0!
1-
0.
1%
00
0,
0$
#775000
1!
1.
0%
10
1,
1$
#780000
1#
0"
0!
1/
0-
0.
1%
00
0,
0$
#785000
1!
1.
0%
#790000
1"
0!
1-
0.
1%
10
1,
1$
#795000
1!
1.
0%
#800000
0#
0"
0!
0/
0-
0.
1%
00
0,
0$
#805000
1!
1.
0%
10
1,
1$
#810000
1"
0!
1-
0.
1%
00
0,
0$
#815000
1!
1.
0%
10
1,
1$
#820000
1#
0"
0!
1/
0-
0.
1%
00
0,
0$
#825000
1!
1.
0%
#830000
1"
0!
1-
0.
1%
10
1,
1$
#835000
1!
1.
0%
#840000
0#
0"
0!
0/
0-
0.
1%
00
0,
0$
#845000
1!
1.
0%
10
1,
1$
#850000
1"
0!
1-
0.
1%
00
0,
0$
#855000
1!
1.
0%
10
1,
1$
#860000
1#
0"
0!
1/
0-
0.
1%
00
0,
0$
#865000
1!
1.
0%
#870000
1"
0!
1-
0.
1%
10
1,
1$
#875000
1!
1.
0%
#880000
0#
0"
0!
0/
0-
0.
1%
00
0,
0$
#885000
1!
1.
0%
10
1,
1$
#890000
1"
0!
1-
0.
1%
00
0,
0$
#895000
1!
1.
0%
10
1,
1$
#900000
1#
0"
0!
1/
0-
0.
1%
00
0,
0$
#905000
1!
1.
0%
#910000
1"
0!
1-
0.
1%
10
1,
1$
#915000
1!
1.
0%
#920000
0#
0"
0!
0/
0-
0.
1%
00
0,
0$
#925000
1!
1.
0%
10
1,
1$
#930000
1"
0!
1-
0.
1%
00
0,
0$
#935000
1!
1.
0%
10
1,
1$
#940000
1#
0"
0!
1/
0-
0.
1%
00
0,
0$
#945000
1!
1.
0%
#950000
1"
0!
1-
0.
1%
10
1,
1$
#955000
1!
1.
0%
#960000
0#
0"
0!
0/
0-
0.
1%
00
0,
0$
#965000
1!
1.
0%
10
1,
1$
#970000
1"
0!
1-
0.
1%
00
0,
0$
#975000
1!
1.
0%
10
1,
1$
#980000
1#
0"
0!
1/
0-
0.
1%
00
0,
0$
#985000
1!
1.
0%
#990000
1"
0!
1-
0.
1%
10
1,
1$
#995000
1!
1.
0%
