lab3/q2_MUX2X1BDSC/simulation/qsim/mux2x1_behavioral_description.msim.vcd
$comment
	File created using the following command:
		vcd file mux2x1_behavioral_description.msim.vcd -direction
$end
$date
	Sat Oct 01 11:38:12 2022
$end
$version
	ModelSim Version 10.1d
$end
$timescale
	1ps
$end
$scope module mux2x1_behavioral_description_vlg_vec_tst $end
$var reg 1 ! I0 $end
$var reg 1 " I1 $end
$var reg 1 # s0 $end
$var wire 1 $ d $end
$var wire 1 % sampler $end
$scope module i1 $end
$var wire 1 & gnd $end
$var wire 1 ' vcc $end
$var wire 1 ( unknown $end
$var tri1 1 ) devclrn $end
$var tri1 1 * devpor $end
$var tri1 1 + devoe $end
$var wire 1 , d~output_o $end
$var wire 1 - I1~input_o $end
$var wire 1 . s0~input_o $end
$var wire 1 / I0~input_o $end
$var wire 1 0 d~0_combout $end
$upscope $end
$upscope $end
$enddefinitions $end
#0
$dumpvars
0!
0"
0#
0$
x%
0&
1'
x(
1)
1*
1+
0,
0-
0.
0/
00
$end
#12500
1#
1.
0%
#25000
1!
0#
1/
0.
1%
10
1,
1$
#37500
1#
1.
0%
00
0,
0$
#50000
1"
0!
0#
1-
0/
0.
1%
#62500
1#
1.
0%
10
1,
1$
#75000
1!
0#
1/
0.
1%
#87500
1#
1.
0%
#100000
0"
0!
0#
0-
0/
0.
1%
00
0,
0$
#112500
1#
1.
0%
#125000
1!
0#
1/
0.
1%
10
1,
1$
#137500
1#
1.
0%
00
0,
0$
#150000
1"
0!
0#
1-
0/
0.
1%
#162500
1#
1.
0%
10
1,
1$
#175000
1!
0#
1/
0.
1%
#187500
1#
1.
0%
#200000
0"
0!
0#
0-
0/
0.
1%
00
0,
0$
#212500
1#
1.
0%
#225000
1!
0#
1/
0.
1%
10
1,
1$
#237500
1#
1.
0%
00
0,
0$
#250000
1"
0!
0#
1-
0/
0.
1%
#262500
1#
1.
0%
10
1,
1$
#275000
1!
0#
1/
0.
1%
#287500
1#
1.
0%
#300000
0"
0!
0#
0-
0/
0.
1%
00
0,
0$
#312500
1#
1.
0%
#325000
1!
0#
1/
0.
1%
10
1,
1$
#337500
1#
1.
0%
00
0,
0$
#350000
1"
0!
0#
1-
0/
0.
1%
#362500
1#
1.
0%
10
1,
1$
#375000
1!
0#
1/
0.
1%
#387500
1#
1.
0%
#400000
0"
0!
0#
0-
0/
0.
1%
00
0,
0$
#412500
1#
1.
0%
#425000
1!
0#
1/
0.
1%
10
1,
1$
#437500
1#
1.
0%
00
0,
0$
#450000
1"
0!
0#
1-
0/
0.
1%
#462500
1#
1.
0%
10
1,
1$
#475000
1!
0#
1/
0.
1%
#487500
1#
1.
0%
#500000
0"
0!
0#
0-
0/
0.
1%
00
0,
0$
#512500
1#
1.
0%
#525000
1!
0#
1/
0.
1%
10
1,
1$
#537500
1#
1.
0%
00
0,
0$
#550000
1"
0!
0#
1-
0/
0.
1%
#562500
1#
1.
0%
10
1,
1$
#575000
1!
0#
1/
0.
1%
#587500
1#
1.
0%
#600000
0"
0!
0#
0-
0/
0.
1%
00
0,
0$
#612500
1#
1.
0%
#625000
1!
0#
1/
0.
1%
10
1,
1$
#637500
1#
1.
0%
00
0,
0$
#650000
1"
0!
0#
1-
0/
0.
1%
#662500
1#
1.
0%
10
1,
1$
#675000
1!
0#
1/
0.
1%
#687500
1#
1.
0%
#700000
0"
0!
0#
0-
0/
0.
1%
00
0,
0$
#712500
1#
1.
0%
#725000
1!
0#
1/
0.
1%
10
1,
1$
#737500
1#
1.
0%
00
0,
0$
#750000
1"
0!
0#
1-
0/
0.
1%
#762500
1#
1.
0%
10
1,
1$
#775000
1!
0#
1/
0.
1%
#787500
1#
1.
0%
#800000
0"
0!
0#
0-
0/
0.
1%
00
0,
0$
#812500
1#
1.
0%
#825000
1!
0#
1/
0.
1%
10
1,
1$
#837500
1#
1.
0%
00
0,
0$
#850000
1"
0!
0#
1-
0/
0.
1%
#862500
1#
1.
0%
10
1,
1$
#875000
1!
0#
1/
0.
1%
#887500
1#
1.
0%
#900000
0"
0!
0#
0-
0/
0.
1%
00
0,
0$
#912500
1#
1.
0%
#925000
1!
0#
1/
0.
1%
10
1,
1$
#937500
1#
1.
0%
00
0,
0$
#950000
1"
0!
0#
1-
0/
0.
1%
#962500
1#
1.
0%
10
1,
1$
#975000
1!
0#
1/
0.
1%
#987500
1#
1.
0%
