lab3/Mux4x1 with Mux4x2 - behavioral description/simulation/qsim/mux4x1_behavioral_description.msim.vcd
$comment
	File created using the following command:
		vcd file mux4x1_behavioral_description.msim.vcd -direction
$end
$date
	Sat Oct 01 12:34:34 2022
$end
$version
	ModelSim Version 10.1d
$end
$timescale
	1ps
$end
$scope module mux4x1_behavioral_description_vlg_vec_tst $end
$var reg 1 ! I0 $end
$var reg 1 " I1 $end
$var reg 1 # I2 $end
$var reg 1 $ I3 $end
$var reg 1 % s0_in $end
$var reg 1 & s1_in $end
$var wire 1 ' S $end
$var wire 1 ( sampler $end
$scope module i1 $end
$var wire 1 ) gnd $end
$var wire 1 * vcc $end
$var wire 1 + unknown $end
$var tri1 1 , devclrn $end
$var tri1 1 - devpor $end
$var tri1 1 . devoe $end
$var wire 1 / S~output_o $end
$var wire 1 0 I3~input_o $end
$var wire 1 1 s1_in~input_o $end
$var wire 1 2 s0_in~input_o $end
$var wire 1 3 I1~input_o $end
$var wire 1 4 I0~input_o $end
$var wire 1 5 u3|S~0_combout $end
$var wire 1 6 I2~input_o $end
$var wire 1 7 u3|S~1_combout $end
$upscope $end
$upscope $end
$enddefinitions $end
#0
$dumpvars
0!
0"
0#
0$
0%
0&
0'
x(
0)
1*
x+
1,
1-
1.
0/
00
01
02
03
04
05
06
07
$end
#12500
1$
10
0(
#25000
1#
0$
16
00
1(
#37500
1$
10
0(
#50000
1"
0#
0$
13
06
00
1(
#62500
1$
10
0(
#75000
1#
0$
16
00
1(
#87500
1$
10
0(
#100000
1!
0"
0#
0$
14
03
06
00
1(
15
17
1/
1'
#112500
1$
10
0(
#125000
1#
0$
16
00
1(
#137500
1$
10
0(
#150000
1"
0#
0$
13
06
00
1(
#162500
1$
10
0(
#175000
1#
0$
16
00
1(
#187500
1$
10
0(
#200000
1&
0!
0"
0#
0$
11
04
03
06
00
1(
05
07
0/
0'
#212500
1$
10
0(
#225000
1#
0$
16
00
1(
#237500
1$
10
0(
#250000
1"
0#
0$
13
06
00
1(
15
17
1/
1'
#262500
1$
10
0(
#275000
1#
0$
16
00
1(
#287500
1$
10
0(
#300000
1!
0"
0#
0$
14
03
06
00
1(
05
07
0/
0'
#312500
1$
10
0(
#325000
1#
0$
16
00
1(
#337500
1$
10
0(
#350000
1"
0#
0$
13
06
00
1(
15
17
1/
1'
#362500
1$
10
0(
#375000
1#
0$
16
00
1(
#387500
1$
10
0(
#400000
1%
0&
0!
0"
0#
0$
12
01
04
03
06
00
1(
05
07
0/
0'
#412500
1$
10
0(
#425000
1#
0$
16
00
1(
17
1/
1'
#437500
1$
10
0(
#450000
1"
0#
0$
13
06
00
1(
07
0/
0'
#462500
1$
10
0(
#475000
1#
0$
16
00
1(
17
1/
1'
#487500
1$
10
0(
#500000
1!
0"
0#
0$
14
03
06
00
1(
07
0/
0'
#512500
1$
10
0(
#525000
1#
0$
16
00
1(
17
1/
1'
#537500
1$
10
0(
#550000
1"
0#
0$
13
06
00
1(
07
0/
0'
#562500
1$
10
0(
#575000
1#
0$
16
00
1(
17
1/
1'
#587500
1$
10
0(
#600000
1&
0!
0"
0#
0$
11
04
03
06
00
1(
15
07
0/
0'
#612500
1$
10
0(
17
1/
1'
#625000
1#
0$
16
00
1(
07
0/
0'
#637500
1$
10
0(
17
1/
1'
#650000
1"
0#
0$
13
06
00
1(
07
0/
0'
#662500
1$
10
0(
17
1/
1'
#675000
1#
0$
16
00
1(
07
0/
0'
#687500
1$
10
0(
17
1/
1'
#700000
1!
0"
0#
0$
14
03
06
00
1(
07
0/
0'
#712500
1$
10
0(
17
1/
1'
#725000
1#
0$
16
00
1(
07
0/
0'
#737500
1$
10
0(
17
1/
1'
#750000
1"
0#
0$
13
06
00
1(
07
0/
0'
#762500
1$
10
0(
17
1/
1'
#775000
1#
0$
16
00
1(
07
0/
0'
#787500
1$
10
0(
17
1/
1'
#800000
0%
0&
0!
0"
0#
0$
02
01
04
03
06
00
1(
05
07
0/
0'
#812500
1$
10
0(
#825000
1#
0$
16
00
1(
#837500
1$
10
0(
#850000
1"
0#
0$
13
06
00
1(
#862500
1$
10
0(
#875000
1#
0$
16
00
1(
#887500
1$
10
0(
#900000
1!
0"
0#
0$
14
03
06
00
1(
15
17
1/
1'
#912500
1$
10
0(
#925000
1#
0$
16
00
1(
#937500
1$
10
0(
#950000
1"
0#
0$
13
06
00
1(
#962500
1$
10
0(
#975000
1#
0$
16
00
1(
#987500
1$
10
0(
